{
  "images" : [
    {
      "filename" : "kisspng-computer-icons-apple-icon-image-format-desktop-wal-information-about-us-icon-5ab189b219a0d6.636360201521584562105@1x.png",
      "idiom" : "universal",
      "scale" : "1x"
    },
    {
      "filename" : "kisspng-computer-icons-apple-icon-image-format-desktop-wal-information-about-us-icon-5ab189b219a0d6.636360201521584562105@2x.png",
      "idiom" : "universal",
      "scale" : "2x"
    },
    {
      "filename" : "kisspng-computer-icons-apple-icon-image-format-desktop-wal-information-about-us-icon-5ab189b219a0d6.636360201521584562105@3x.png",
      "idiom" : "universal",
      "scale" : "3x"
    }
  ],
  "info" : {
    "author" : "xcode",
    "version" : 1
  }
}
